{
  "name": "TemplateNavigation",
  "plural": "TemplateNavigation",
  "base": "PersistedModel",
  "idInjection": true,
  "options": {
    "validateUpsert": true
  },
  "properties": {
    "text": {
      "type": "string",
      "required": true
    },
    "iconCls": {
      "type": "string",
      "required": true
    },
    "rowCls": {
      "type": "string"
    },
    "viewType": {
      "type": "string",
      "required": true
    },
    "routeId": {
      "type": "string",
      "required": true
    },
    "weight": {
      "type": "number",
      "default": 5
    },
    "leaf": {
      "type": "boolean"
    },
    "expanded": {
      "type": "boolean"
    },
    "selectable": {
      "type": "boolean"
    },
    "children": {
      "type": [
        "object"
      ]
    }
  },
  "validations": [],
  "relations": {},
  "acls": [],
  "methods": {}
}
